{
    "apply_input_adjustments_to_example_input": true,
    "build_data_path": true,
    "build_from": null,
    "build_until": null,
    "debug_individual_stage": null,
    "dsp_target": 5000,
    "example_input_only_scale": 1.0,
    "generated_circuit_dir": "generated_files/circuits/quartus_circuit",
    "import_mobilenet_ssd": false,
    "input_adjustments": {
        "bit_spec": {
            "frac": 2,
            "int": 2,
            "sign": 1
        },
        "channel_biases": [
            -0.5
        ],
        "post_scale": 2.0,
        "pre_scale": 1.0
    },
    "input_bit_spec": {
        "frac": 8,
        "int": 0,
        "sign": 0
    },
    "input_interpretation_bit_spec": {
        "frac": 8,
        "int": 0,
        "sign": 0
    },
    "instantiate_quartus_ip": false,
    "mem_target": null,
    "oc_unroll_threshold": 10000,
    "op_precision_annotations_path": "default_precisions.annotations",
    "output_names": [
        "import/MobilenetV1/Logits/Conv2d_1c_1x1/BiasAdd"
    ],
    "pb_path": "mobilenet_v1_224_8bit_correct_quant_frozen.pb",
    "physically_mapped_rams": true,
    "propagate_outputs_to_top": false,
    "quartus": true,
    "sample_image": [
        "exported_binary_inputs/imagenet_0.png",
        "exported_binary_inputs/imagenet_1.png",
        "exported_binary_inputs/imagenet_2.png",
        "exported_binary_inputs/imagenet_3.png",
        "exported_binary_inputs/imagenet_4.png",
        "exported_binary_inputs/imagenet_5.png",
        "exported_binary_inputs/imagenet_6.png",
        "exported_binary_inputs/imagenet_7.png",
        "exported_binary_inputs/imagenet_8.png",
        "exported_binary_inputs/imagenet_9.png",
        "exported_binary_inputs/imagenet_10.png",
        "exported_binary_inputs/imagenet_11.png",
        "exported_binary_inputs/imagenet_12.png",
        "exported_binary_inputs/imagenet_13.png",
        "exported_binary_inputs/imagenet_14.png",
        "exported_binary_inputs/imagenet_15.png",
        "exported_binary_inputs/imagenet_16.png",
        "exported_binary_inputs/imagenet_17.png",
        "exported_binary_inputs/imagenet_18.png",
        "exported_binary_inputs/imagenet_19.png"
    ],
    "target_act_bits": 8,
    "target_bias_and_act_func_bits": 16,
    "target_parameter_bits": 8,
    "top_level_module_type": "quartus"
}