1 449
2 450
3 442
4 443
5 444
6 445
7 446
8 383
9 384
10 385
11 386
12 387
13 388
14 389
15 390
16 391
17 392
18 393
19 394
20 395
21 396
22 397
23 398
24 399
25 400
26 494
27 495
28 496
29 497
30 498
31 499
32 500
33 501
34 458
35 459
36 460
37 461
38 462
39 463
40 464
41 465
42 466
43 467
44 468
45 469
46 470
47 471
48 472
49 473
50 475
51 476
52 474
53 477
54 478
55 479
56 480
57 481
58 482
59 483
60 484
61 485
62 486
63 487
64 488
65 489
66 490
67 491
68 492
69 493
70 601
71 602
72 603
73 604
74 605
75 606
76 607
77 608
78 609
79 610
80 611
81 401
82 402
83 403
84 404
85 405
86 406
87 407
88 408
89 409
90 410
91 411
92 412
93 413
94 414
95 415
96 416
97 417
98 418
99 419
100 420
101 421
102 214
103 215
104 217
105 216
106 213
107 218
108 647
109 648
110 649
111 650
112 651
113 652
114 653
115 654
116 655
117 656
118 226
119 613
120 614
121 615
122 616
123 617
124 618
125 619
126 620
127 612
128 422
129 423
130 424
131 425
132 427
133 426
134 428
135 429
136 430
137 438
138 431
139 432
140 433
141 434
142 435
143 436
144 437
145 439
146 440
147 441
148 6
149 22
150 193
151 14
152 173
153 99
154 87
155 69
156 116
157 198
158 43
159 89
160 200
161 98
162 161
163 132
164 32
165 180
166 42
167 18
168 207
169 181
170 105
171 77
172 189
173 20
174 204
175 63
176 31
177 66
178 21
179 25
180 45
181 170
182 119
183 210
184 107
185 126
186 88
187 145
188 59
189 160
190 152
191 72
192 33
193 91
194 4
195 27
196 113
197 123
198 36
199 156
200 109
201 158
202 131
203 26
204 71
205 56
206 146
207 144
208 125
209 176
210 139
211 134
212 90
213 2
214 192
215 154
216 150
217 94
218 5
219 19
220 191
221 196
222 117
223 141
224 68
225 93
226 51
227 208
228 184
229 97
230 29
231 171
232 124
233 128
234 47
235 64
236 211
237 112
238 187
239 114
240 86
241 115
242 79
243 130
244 140
245 110
246 82
247 17
248 177
249 149
250 15
251 3
252 41
253 127
254 84
255 143
256 133
257 60
258 172
259 179
260 118
261 168
262 148
263 70
264 197
265 50
266 106
267 49
268 151
269 46
270 205
271 102
272 28
273 58
274 155
275 136
276 202
277 34
278 62
279 1
280 159
281 67
282 174
283 55
284 10
285 95
286 8
287 11
288 201
289 85
290 153
291 30
292 190
293 76
294 206
295 61
296 163
297 103
298 209
299 74
300 35
301 621
302 622
303 623
304 624
305 625
306 626
307 627
308 628
309 629
310 630
311 224
312 631
313 632
314 633
315 634
316 635
317 636
318 637
319 638
320 639
321 640
322 641
323 642
324 643
325 644
326 645
327 646
328 225
329 657
330 658
331 188
332 129
333 164
334 157
335 13
336 53
337 183
338 195
339 101
340 39
341 80
342 147
343 78
344 120
345 167
346 108
347 162
348 165
349 81
350 52
351 9
352 65
353 57
354 12
355 121
356 186
357 48
358 23
359 182
360 40
361 212
362 44
363 16
364 178
365 38
366 83
367 104
368 96
369 185
370 122
371 73
372 135
373 137
374 138
375 203
376 54
377 100
378 175
379 142
380 166
381 37
382 111
383 92
384 199
385 75
386 194
387 24
388 7
389 169
390 447
391 451
392 448
393 452
394 453
395 456
396 457
397 454
398 455
399 547
400 853
401 896
402 223
403 345
404 246
405 230
406 232
407 677
408 265
409 264
410 522
411 688
412 845
413 752
414 540
415 847
416 704
417 767
418 233
419 907
420 967
421 341
422 718
423 916
424 307
425 705
426 683
427 518
428 905
429 258
430 807
431 908
432 296
433 353
434 785
435 909
436 884
437 266
438 733
439 991
440 849
441 777
442 811
443 933
444 941
445 254
446 985
447 835
448 533
449 839
450 689
451 252
452 940
453 805
454 300
455 706
456 779
457 538
458 817
459 716
460 872
461 719
462 949
463 851
464 820
465 580
466 833
467 887
468 707
469 267
470 673
471 591
472 539
473 239
474 377
475 836
476 576
477 568
478 891
479 749
480 563
481 548
482 890
483 929
484 701
485 241
486 987
487 342
488 914
489 827
490 721
491 902
492 382
493 762
494 303
495 335
496 301
497 801
498 690
499 695
500 370
501 713
502 797
503 979
504 761
505 996
506 674
507 698
508 583
509 543
510 708
511 243
512 268
513 376
514 347
515 910
516 881
517 297
518 429
519 778
520 898
521 298
522 670
523 756
524 856
525 865
526 720
527 313
528 550
529 959
530 966
531 523
532 529
533 315
534 821
535 667
536 579
537 715
538 253
539 897
540 972
541 834
542 336
543 799
544 1000
545 662
546 512
547 346
548 262
549 316
550 879
551 660
552 808
553 796
554 305
555 235
556 279
557 919
558 995
559 356
560 309
561 784
562 261
563 712
564 934
565 299
566 256
567 348
568 671
569 757
570 280
571 971
572 567
573 955
574 275
575 792
576 276
577 236
578 337
579 911
580 227
581 684
582 725
583 703
584 517
585 581
586 895
587 249
588 375
589 840
590 505
591 551
592 750
593 573
594 350
595 344
596 554
597 369
598 787
599 696
600 730
601 562
602 802
603 924
604 293
605 525
606 980
607 659
608 592
609 748
610 269
611 961
612 963
613 294
614 560
615 770
616 773
617 582
618 918
619 892
620 814
621 228
622 374
623 988
624 371
625 687
626 238
627 546
628 270
629 244
630 867
631 973
632 894
633 508
634 536
635 697
636 532
637 818
638 917
639 782
640 977
641 763
642 338
643 339
644 781
645 984
646 598
647 922
648 946
649 302
650 717
651 509
652 661
653 866
654 875
655 920
656 880
657 271
658 251
659 871
660 829
661 290
662 272
663 764
664 686
665 869
666 277
667 824
668 854
669 691
670 852
671 260
672 255
673 728
674 511
675 599
676 284
677 588
678 585
679 595
680 755
681 915
682 552
683 699
684 354
685 351
686 520
687 513
688 333
689 870
690 937
691 295
692 506
693 921
694 826
695 564
696 584
697 504
698 759
699 685
700 352
701 877
702 942
703 994
704 306
705 527
706 257
707 679
708 843
709 732
710 842
711 850
712 883
713 783
714 789
715 575
716 926
717 722
718 281
719 596
720 931
721 901
722 888
723 841
724 565
725 245
726 983
727 372
728 693
729 964
730 731
731 381
732 378
733 857
734 923
735 285
736 855
737 314
738 788
739 838
740 566
741 373
742 769
743 556
744 702
745 542
746 534
747 572
748 846
749 939
750 862
751 976
752 273
753 860
754 571
755 863
756 537
757 927
758 286
759 570
760 965
761 668
762 578
763 694
764 219
765 541
766 310
767 663
768 997
769 876
770 519
771 760
772 753
773 586
774 952
775 751
776 938
777 355
778 809
779 521
780 962
781 221
782 729
783 510
784 587
785 379
786 589
787 559
788 800
789 709
790 832
791 950
792 259
793 380
794 868
795 747
796 590
797 776
798 943
799 549
800 726
801 557
802 507
803 288
804 278
805 960
806 222
807 986
808 577
809 925
810 822
811 858
812 515
813 234
814 676
815 237
816 600
817 775
818 274
819 593
820 804
821 263
822 680
823 340
824 530
825 998
826 724
827 528
828 516
829 514
830 287
831 957
832 311
833 692
834 247
835 794
836 526
837 574
838 535
839 810
840 681
841 828
842 837
843 945
844 569
845 561
846 531
847 304
848 250
849 978
850 675
851 786
852 944
853 970
854 989
855 903
856 758
857 555
858 308
859 780
860 664
861 710
862 312
863 594
864 700
865 282
866 711
867 289
868 283
869 766
870 825
871 291
872 242
873 597
874 678
875 882
876 349
877 765
878 727
879 544
880 220
881 292
882 334
883 666
884 874
885 990
886 969
887 558
888 790
889 682
890 343
891 936
892 665
893 524
894 928
895 317
896 231
897 906
898 669
899 958
900 819
901 795
902 772
903 502
904 899
905 912
906 904
907 935
908 831
909 503
910 672
911 951
912 815
913 723
914 248
915 240
916 714
917 553
918 930
919 791
920 932
921 861
922 774
923 803
924 754
925 813
926 844
927 771
928 793
929 974
930 968
931 873
932 768
933 975
934 993
935 885
936 734
937 736
938 737
939 738
940 739
941 740
942 741
943 742
944 743
945 744
946 735
947 745
948 746
949 318
950 229
951 319
952 320
953 321
954 322
955 323
956 324
957 325
958 326
959 816
960 999
961 953
962 864
963 806
964 948
965 830
966 900
967 798
968 947
969 859
970 823
971 361
972 992
973 359
974 365
975 368
976 366
977 363
978 364
979 367
980 360
981 362
982 954
983 848
984 982
985 330
986 357
987 358
988 331
989 327
990 328
991 332
992 886
993 913
994 956
995 893
996 878
997 812
998 981
999 329
1000 889
